// Jest Snapshot v1, https://goo.gl/fbAQLP

exports[`Log Grid should render without crashing 1`] = `
<Panel
  layout="vbox"
  title={undefined}
  tools={
    Array [
      Object {
        "handler": [Function],
        "tooltip": "Reload Logs",
        "type": "refresh",
      },
    ]
  }
>
  <Grid
    flex="1"
    platformConfig={
      Object {
        "desktop": Object {
          "plugins": Object {
            "gridcellediting": true,
          },
        },
      }
    }
    selectable="single"
    store={
      Object {
        "$className": "Ext.data.Store",
      }
    }
    userSelectable={true}
    width="100%"
  >
    <Column
      dataIndex="failureReason"
      flex="1"
      text="Reason"
    />
    <Column
      flex="1"
      renderer={[Function]}
      text="Solution"
    />
    <Column
      renderer={[Function]}
      width="100"
    />
  </Grid>
</Panel>
`;
