// Jest Snapshot v1, https://goo.gl/fbAQLP

exports[`Monitor Panel should render without crashing 1`] = `
<Panel
  layout="vbox"
  title="Accounts"
  tools={
    Array [
      Object {
        "handler": [Function],
        "hidden": false,
        "tooltip": "Expand",
        "type": "right",
      },
      Object {
        "handler": [Function],
        "hidden": true,
        "tooltip": "Collapse",
        "type": "left",
      },
    ]
  }
>
  <Container
    height="30"
    layout={
      Object {
        "pack": "right",
        "type": "hbox",
      }
    }
    margin="2 0 2 0"
  >
    <ComboBox
      displayField="name"
      editable={false}
      forceSelection={true}
      label="Show "
      labelWidth="50"
      name="showType"
      onChange={[Function]}
      store={
        Object {
          "$className": "Ext.data.Store",
        }
      }
      value="Alerts"
      valueField="name"
      width="200"
    />
    <TextField
      label="Sub Filter"
      labelWidth="70"
      margin="0 10 0 40"
    />
    <Label
      hidden={true}
      html="<b>Current Sub Filter: 0<b/>"
      margin="5 50 0 50"
    />
    <Button
      handler={[Function]}
      text="Filter"
    />
  </Container>
  <Grid
    flex="1"
    itemConfig={
      Object {
        "bind": Object {
          "cls": "{isAlert}",
        },
        "cls": "row-class",
        "viewModel": Object {
          "type": "alert-row-model",
        },
      }
    }
    onContextMenu={
      Object {
        "element": "element",
        "fn": [Function],
        "preventDefault": true,
      }
    }
    onSelect={[Function]}
    selectable="single"
    store={
      Object {
        "$className": "Ext.data.Store",
      }
    }
    userSelectable={true}
    width="100%"
  >
    <Menu>
      <MenuItem
        handler={undefined}
        iconCls="x-fa fa-search"
        text="Show Details"
      />
    </Menu>
    <Column
      renderer={[Function]}
      resizable={false}
      sortable={false}
      width="55"
    />
    <Column
      dataIndex="alertStatus"
      renderer={[Function]}
      width="15"
    />
    <Column
      dataIndex="subNo"
      text="Sub"
      width="45"
    />
    <Column
      dataIndex="accountNumber"
      flex="1"
      minWidth="80"
      text="Account"
    />
    <Column
      dataIndex="accountType"
      text="Type"
      width="60"
    />
    <NumberColumn
      align="right"
      dataIndex="equity"
      format="000,000,000.0"
      text="Equity"
      width="95"
    />
    <NumberColumn
      align="right"
      dataIndex="equityPercent"
      format="000.0"
      text="Eq. %"
      width="55"
    />
    <NumberColumn
      align="right"
      dataIndex="riskRatio"
      format="0.00"
      text="Risk <br /> Ratio"
      width="60"
    />
    <NumberColumn
      align="right"
      dataIndex="maxPositionShockRisk"
      format="000,000,000.0"
      text="Max <br /> Shock"
      width="85"
    />
    <NumberColumn
      align="right"
      dataIndex="ruinDays"
      text="Ruin <br /> Days"
      width="60"
    />
    <NumberColumn
      align="right"
      dataIndex="riskEquity"
      format="000,000,000.0"
      text="Risk <br /> Adj. Eq."
      width="100"
    />
    <NumberColumn
      align="right"
      dataIndex="riskEquityPercent"
      format="000.0"
      text="Risk <br /> Adj. <br /> Eq. %"
      width="65"
    />
    <NumberColumn
      align="right"
      dataIndex="longMarketValue"
      format="000,000,000.0"
      text="Long <br /> Market"
      width="95"
    />
    <NumberColumn
      align="right"
      dataIndex="shortMarketValue"
      format="000,000,000.0"
      text="Short <br /> Market"
      width="75"
    />
    <NumberColumn
      align="right"
      dataIndex="totalCash"
      format="000,000,000.0"
      text="Total <br /> Market"
      width="85"
    />
    <NumberColumn
      align="right"
      dataIndex="totalMarketValue"
      format="000,000,000.0"
      text="Total <br /> Cash"
      width="90"
    />
    <TextColumn
      align="right"
      dataIndex="activityCount"
      format="0"
      text="Cnt"
      width="50"
    />
  </Grid>
</Panel>
`;
